{
  "dataSet": [
    {
      "title": "Current Month",
      "ranges": [30, 30, 40],
      "value": 15,
      "minValue": "1.6k",
      "maxValue": "2.4k"
    },
    {
      "title": "Current Quarter",
      "ranges": [10, 60, 30],
      "value": 30,
      "minValue": "1.6k",
      "maxValue": "2.4k"
    }
  ]
}